-------------------------------------------------------------------------------
Test set: com.mycompany.jobproject.JobserviceTest
-------------------------------------------------------------------------------
Tests run: 5, Failures: 0, Errors: 0, Skipped: 0, Time elapsed: 0.003 sec
